{
"count": 94793,
"next": "http://freesound.org/apiv2/search/text/?&query=carshttps:%2F%2Ffreesound.org%2Fapiv2%2Fsearch%2Ftext%2F%3Fquery%3Dpiano&page=3",
"results": [
{
"id": 140696,
"name": "High E Guitar String Struck with Packaging Paper Tube.wav",
"tags": [
"High-E",
"E",
"String",
"Tube",
"Packaging",
"Guitar",
"High",
"Record",
"Paper",
"Melody",
"Recording",
"Acousting",
"Roll",
"dare-9"
],
"license": "http://creativecommons.org/publicdomain/zero/1.0/",
"username": "afleetingspeck"
},
{
"id": 140459,
"name": "Packaging Paper Finger Flick.wav",
"tags": [
"Flick",
"Recording",
"Hit",
"Packaging",
"Percussion",
"Paper",
"Finger",
"dare-9",
"Gun",
"Shot"
],
"license": "http://creativecommons.org/publicdomain/zero/1.0/",
"username": "afleetingspeck"
},
{
"id": 140700,
"name": "Packaging Paper Tube Air Suck.wav",
"tags": [
"Recording",
"Reverse",
"Tube",
"Air",
"Packaging",
"Record",
"Paper",
"dare-9",
"Suck",
"Air-suck",
"Roll"
],
"license": "http://creativecommons.org/publicdomain/zero/1.0/",
"username": "afleetingspeck"
},
{
"id": 140701,
"name": "Packaging Paper Pen Scribble.wav",
"tags": [
"Recording",
"Sheet",
"Cackle",
"Fire",
"Crackle",
"Packaging",
"Record",
"Pen",
"Paper",
"dare-9",
"Scribble"
],
"license": "http://creativecommons.org/publicdomain/zero/1.0/",
"username": "afleetingspeck"
},
{
"id": 140702,
"name": "Plastic Packaging of Packaging Paper Squeaking.wav",
"tags": [
"Pull",
"dare-9",
"Stretch",
"Squeaking",
"Plastic",
"Packaging",
"Record",
"Rat",
"Paper",
"Squealing",
"Push",
"Mice",
"Recording",
"Mouse",
"Walking"
],
"license": "http://creativecommons.org/publicdomain/zero/1.0/",
"username": "afleetingspeck"
},
{
"id": 140463,
"name": "Packaging Paper Rub Sliding Between Hands.wav",
"tags": [
"Recording",
"Rub",
"Packaging",
"Slide",
"Paper",
"dare-9",
"Hands",
"Marching"
],
"license": "http://creativecommons.org/publicdomain/zero/1.0/",
"username": "afleetingspeck"
},
{
"id": 140457,
"name": "Packaging Paper Punch Thick.wav",
"tags": [
"Recording",
"Shot",
"Punch",
"Gun",
"Packaging",
"Paper",
"dare-9",
"Thick"
],
"license": "http://creativecommons.org/publicdomain/zero/1.0/",
"username": "afleetingspeck"
},
{
"id": 140695,
"name": "Low E Guitar String Vibration Interrupted by Packaging Paper.wav",
"tags": [
"Guitar",
"E",
"String",
"Vibration",
"Recording",
"Interrupting",
"Stop",
"Low-E",
"Packaging",
"Record",
"Paper",
"Low",
"Interrupt",
"Acoustic",
"Razor",
"Piece",
"dare-9"
],
"license": "http://creativecommons.org/publicdomain/zero/1.0/",
"username": "afleetingspeck"
},
{
"id": 140697,
"name": "Open Guitar Chords Strum (E, A Minor, D, G, and C).wav",
"tags": [
"A",
"Packaging",
"C",
"Sheet",
"D",
"G",
"Chords",
"Acoustic",
"Major",
"Guitar",
"Record",
"Paper",
"Low",
"Strum",
"Pick",
"Recording",
"E",
"Quality",
"Minor",
"dare-9"
],
"license": "http://creativecommons.org/publicdomain/zero/1.0/",
"username": "afleetingspeck"
},
{
"id": 140458,
"name": "Packaging Paper Play.wav",
"tags": [
"Recording",
"Play",
"Noise",
"Turning",
"Crumbling",
"Rubbing",
"Packaging",
"Paper",
"Moving",
"dare-9",
"Making",
"With",
"By"
],
"license": "http://creativecommons.org/publicdomain/zero/1.0/",
"username": "afleetingspeck"
},
{
"id": 140694,
"name": "Packaging Paper Hollow Tube Percussion Hit.wav",
"tags": [
"Flick",
"Recording",
"Hit",
"Record",
"Metal",
"Tube",
"Wood",
"Hollow",
"Packaging",
"Percussion",
"Paper",
"Finger",
"Bamboo",
"Roll",
"dare-9"
],
"license": "http://creativecommons.org/publicdomain/zero/1.0/",
"username": "afleetingspeck"
},
{
"id": 140460,
"name": "Packaging Paper Crumble.wav",
"tags": [
"Crush",
"Packaging",
"Recording",
"Paper",
"dare-9",
"Crumble"
],
"license": "http://creativecommons.org/publicdomain/zero/1.0/",
"username": "afleetingspeck"
},
{
"id": 332035,
"name": "\"the crowdsourced mutant electro tune\" A10 - track master.wav",
"tags": [
"aspma-15-results",
"voice",
"electro",
"music",
"electronic"
],
"license": "http://creativecommons.org/licenses/by-nc/3.0/",
"username": "fvix"
},
{
"id": 330867,
"name": "mono_copy__crescendo__song195-2.mp3",
"tags": [
"classical",
"orchestra",
"strings",
"symphony",
"melody",
"piano"
],
"license": "http://creativecommons.org/licenses/by/3.0/",
"username": "LawrieR"
},
{
"id": 405795,
"name": "Org_x2.wav",
"tags": [
"bass",
"string",
"brass",
"contrabass",
"pad",
"guitar",
"flute",
"rhodes",
"organ",
"Sfx"
],
"license": "http://creativecommons.org/publicdomain/zero/1.0/",
"username": "penetrermind"
}
],
"previous": "http://freesound.org/apiv2/search/text/?&query=carshttps:%2F%2Ffreesound.org%2Fapiv2%2Fsearch%2Ftext%2F%3Fquery%3Dpiano&page=1"
}
